{
  "project_info": {
    "project_number": "499083069931",
    "firebase_url": "https://winbitit-f8d80.firebaseio.com",
    "project_id": "winbitit-f8d80",
    "storage_bucket": "winbitit-f8d80.appspot.com"
  },
  "client": [
    {
      "client_info": {
        "mobilesdk_app_id": "1:499083069931:android:836199f12e7a0211",
        "android_client_info": {
          "package_name": "abraj.emran.emran.abraj"
        }
      },
      "oauth_client": [
        {
          "client_id": "499083069931-a7l0724u1277vf1k9u0uv943mf6gr1eg.apps.googleusercontent.com",
          "client_type": 3
        }
      ],
      "api_key": [
        {
          "current_key": "AIzaSyAyYdN6Be9KBu1bagIbWUprdlGQK8RO1kA"
        }
      ],
      "services": {
        "appinvite_service": {
          "other_platform_oauth_client": [
            {
              "client_id": "499083069931-a7l0724u1277vf1k9u0uv943mf6gr1eg.apps.googleusercontent.com",
              "client_type": 3
            },
            {
              "client_id": "499083069931-pnbdpcasn38nsplipo7s4dbev3b8gsc1.apps.googleusercontent.com",
              "client_type": 2,
              "ios_info": {
                "bundle_id": "chans.lotto"
              }
            }
          ]
        }
      },
      "admob_app_id": "ca-app-pub-6836066066475364~9809787130"
    },
    {
      "client_info": {
        "mobilesdk_app_id": "1:499083069931:android:291deb8d5587bc0e",
        "android_client_info": {
          "package_name": "abraj.emran.emran.new777"
        }
      },
      "oauth_client": [
        {
          "client_id": "499083069931-a7l0724u1277vf1k9u0uv943mf6gr1eg.apps.googleusercontent.com",
          "client_type": 3
        }
      ],
      "api_key": [
        {
          "current_key": "AIzaSyAyYdN6Be9KBu1bagIbWUprdlGQK8RO1kA"
        }
      ],
      "services": {
        "appinvite_service": {
          "other_platform_oauth_client": [
            {
              "client_id": "499083069931-a7l0724u1277vf1k9u0uv943mf6gr1eg.apps.googleusercontent.com",
              "client_type": 3
            },
            {
              "client_id": "499083069931-pnbdpcasn38nsplipo7s4dbev3b8gsc1.apps.googleusercontent.com",
              "client_type": 2,
              "ios_info": {
                "bundle_id": "chans.lotto"
              }
            }
          ]
        }
      },
      "admob_app_id": "ca-app-pub-6836066066475364~7738807937"
    },
    {
      "client_info": {
        "mobilesdk_app_id": "1:499083069931:android:d15dd868ccc59197",
        "android_client_info": {
          "package_name": "abraj.emran.emran.quraan"
        }
      },
      "oauth_client": [
        {
          "client_id": "499083069931-a7l0724u1277vf1k9u0uv943mf6gr1eg.apps.googleusercontent.com",
          "client_type": 3
        }
      ],
      "api_key": [
        {
          "current_key": "AIzaSyAyYdN6Be9KBu1bagIbWUprdlGQK8RO1kA"
        }
      ],
      "services": {
        "appinvite_service": {
          "other_platform_oauth_client": [
            {
              "client_id": "499083069931-a7l0724u1277vf1k9u0uv943mf6gr1eg.apps.googleusercontent.com",
              "client_type": 3
            },
            {
              "client_id": "499083069931-pnbdpcasn38nsplipo7s4dbev3b8gsc1.apps.googleusercontent.com",
              "client_type": 2,
              "ios_info": {
                "bundle_id": "chans.lotto"
              }
            }
          ]
        }
      },
      "admob_app_id": "ca-app-pub-6836066066475364~9208221137"
    },
    {
      "client_info": {
        "mobilesdk_app_id": "1:499083069931:android:24c5ccc27bd79610",
        "android_client_info": {
          "package_name": "abraj.emran.emran.tiktampro"
        }
      },
      "oauth_client": [
        {
          "client_id": "499083069931-a7l0724u1277vf1k9u0uv943mf6gr1eg.apps.googleusercontent.com",
          "client_type": 3
        }
      ],
      "api_key": [
        {
          "current_key": "AIzaSyAyYdN6Be9KBu1bagIbWUprdlGQK8RO1kA"
        }
      ],
      "services": {
        "appinvite_service": {
          "other_platform_oauth_client": [
            {
              "client_id": "499083069931-a7l0724u1277vf1k9u0uv943mf6gr1eg.apps.googleusercontent.com",
              "client_type": 3
            },
            {
              "client_id": "499083069931-pnbdpcasn38nsplipo7s4dbev3b8gsc1.apps.googleusercontent.com",
              "client_type": 2,
              "ios_info": {
                "bundle_id": "chans.lotto"
              }
            }
          ]
        }
      },
      "admob_app_id": "ca-app-pub-6836066066475364~4935593140"
    },
    {
      "client_info": {
        "mobilesdk_app_id": "1:499083069931:android:9f8d55d2a986a1aee071ae",
        "android_client_info": {
          "package_name": "chans.emran.chansfulloptions"
        }
      },
      "oauth_client": [
        {
          "client_id": "499083069931-a7l0724u1277vf1k9u0uv943mf6gr1eg.apps.googleusercontent.com",
          "client_type": 3
        }
      ],
      "api_key": [
        {
          "current_key": "AIzaSyAyYdN6Be9KBu1bagIbWUprdlGQK8RO1kA"
        }
      ],
      "services": {
        "appinvite_service": {
          "other_platform_oauth_client": [
            {
              "client_id": "499083069931-a7l0724u1277vf1k9u0uv943mf6gr1eg.apps.googleusercontent.com",
              "client_type": 3
            },
            {
              "client_id": "499083069931-pnbdpcasn38nsplipo7s4dbev3b8gsc1.apps.googleusercontent.com",
              "client_type": 2,
              "ios_info": {
                "bundle_id": "chans.lotto"
              }
            }
          ]
        }
      }
    },
    {
      "client_info": {
        "mobilesdk_app_id": "1:499083069931:android:b8fed3079a731111",
        "android_client_info": {
          "package_name": "com.emran.apps.megam"
        }
      },
      "oauth_client": [
        {
          "client_id": "499083069931-a7l0724u1277vf1k9u0uv943mf6gr1eg.apps.googleusercontent.com",
          "client_type": 3
        }
      ],
      "api_key": [
        {
          "current_key": "AIzaSyAyYdN6Be9KBu1bagIbWUprdlGQK8RO1kA"
        }
      ],
      "services": {
        "appinvite_service": {
          "other_platform_oauth_client": [
            {
              "client_id": "499083069931-a7l0724u1277vf1k9u0uv943mf6gr1eg.apps.googleusercontent.com",
              "client_type": 3
            },
            {
              "client_id": "499083069931-pnbdpcasn38nsplipo7s4dbev3b8gsc1.apps.googleusercontent.com",
              "client_type": 2,
              "ios_info": {
                "bundle_id": "chans.lotto"
              }
            }
          ]
        }
      }
    },
    {
      "client_info": {
        "mobilesdk_app_id": "1:499083069931:android:e0f54a9eefdd2eff",
        "android_client_info": {
          "package_name": "com.emran.emransheikhah.chanspaidapp"
        }
      },
      "oauth_client": [
        {
          "client_id": "499083069931-a7l0724u1277vf1k9u0uv943mf6gr1eg.apps.googleusercontent.com",
          "client_type": 3
        }
      ],
      "api_key": [
        {
          "current_key": "AIzaSyAyYdN6Be9KBu1bagIbWUprdlGQK8RO1kA"
        }
      ],
      "services": {
        "appinvite_service": {
          "other_platform_oauth_client": [
            {
              "client_id": "499083069931-a7l0724u1277vf1k9u0uv943mf6gr1eg.apps.googleusercontent.com",
              "client_type": 3
            },
            {
              "client_id": "499083069931-pnbdpcasn38nsplipo7s4dbev3b8gsc1.apps.googleusercontent.com",
              "client_type": 2,
              "ios_info": {
                "bundle_id": "chans.lotto"
              }
            }
          ]
        }
      }
    },
    {
      "client_info": {
        "mobilesdk_app_id": "1:499083069931:android:e5bcb1c723a28e4a",
        "android_client_info": {
          "package_name": "com.emran.emransheikhah.keno"
        }
      },
      "oauth_client": [
        {
          "client_id": "499083069931-a7l0724u1277vf1k9u0uv943mf6gr1eg.apps.googleusercontent.com",
          "client_type": 3
        }
      ],
      "api_key": [
        {
          "current_key": "AIzaSyAyYdN6Be9KBu1bagIbWUprdlGQK8RO1kA"
        }
      ],
      "services": {
        "appinvite_service": {
          "other_platform_oauth_client": [
            {
              "client_id": "499083069931-a7l0724u1277vf1k9u0uv943mf6gr1eg.apps.googleusercontent.com",
              "client_type": 3
            },
            {
              "client_id": "499083069931-pnbdpcasn38nsplipo7s4dbev3b8gsc1.apps.googleusercontent.com",
              "client_type": 2,
              "ios_info": {
                "bundle_id": "chans.lotto"
              }
            }
          ]
        }
      }
    },
    {
      "client_info": {
        "mobilesdk_app_id": "1:499083069931:android:f4c3467ed09688d3",
        "android_client_info": {
          "package_name": "com.emrancom.chans"
        }
      },
      "oauth_client": [
        {
          "client_id": "499083069931-fg6ctj2527rr0fa5rkaga4icln6cm2k0.apps.googleusercontent.com",
          "client_type": 1,
          "android_info": {
            "package_name": "com.emrancom.chans",
            "certificate_hash": "ee6a8f7618b1c4fc4d8c9d616a678ea643241f18"
          }
        },
        {
          "client_id": "499083069931-a7l0724u1277vf1k9u0uv943mf6gr1eg.apps.googleusercontent.com",
          "client_type": 3
        }
      ],
      "api_key": [
        {
          "current_key": "AIzaSyAyYdN6Be9KBu1bagIbWUprdlGQK8RO1kA"
        }
      ],
      "services": {
        "appinvite_service": {
          "other_platform_oauth_client": [
            {
              "client_id": "499083069931-a7l0724u1277vf1k9u0uv943mf6gr1eg.apps.googleusercontent.com",
              "client_type": 3
            },
            {
              "client_id": "499083069931-pnbdpcasn38nsplipo7s4dbev3b8gsc1.apps.googleusercontent.com",
              "client_type": 2,
              "ios_info": {
                "bundle_id": "chans.lotto"
              }
            }
          ]
        }
      },
      "admob_app_id": "ca-app-pub-6836066066475364~3873274334"
    },
    {
      "client_info": {
        "mobilesdk_app_id": "1:499083069931:android:8d35e49a901d86e6",
        "android_client_info": {
          "package_name": "com.emrancom.h123"
        }
      },
      "oauth_client": [
        {
          "client_id": "499083069931-o6vmf7hbepl6jkstd0floa2blomlct7d.apps.googleusercontent.com",
          "client_type": 1,
          "android_info": {
            "package_name": "com.emrancom.h123",
            "certificate_hash": "ee6a8f7618b1c4fc4d8c9d616a678ea643241f18"
          }
        },
        {
          "client_id": "499083069931-a7l0724u1277vf1k9u0uv943mf6gr1eg.apps.googleusercontent.com",
          "client_type": 3
        }
      ],
      "api_key": [
        {
          "current_key": "AIzaSyAyYdN6Be9KBu1bagIbWUprdlGQK8RO1kA"
        }
      ],
      "services": {
        "appinvite_service": {
          "other_platform_oauth_client": [
            {
              "client_id": "499083069931-a7l0724u1277vf1k9u0uv943mf6gr1eg.apps.googleusercontent.com",
              "client_type": 3
            },
            {
              "client_id": "499083069931-pnbdpcasn38nsplipo7s4dbev3b8gsc1.apps.googleusercontent.com",
              "client_type": 2,
              "ios_info": {
                "bundle_id": "chans.lotto"
              }
            }
          ]
        }
      },
      "admob_app_id": "ca-app-pub-6836066066475364~3531537138"
    },
    {
      "client_info": {
        "mobilesdk_app_id": "1:499083069931:android:8b3144f940f2ff4e",
        "android_client_info": {
          "package_name": "com.emrancom.lotto"
        }
      },
      "oauth_client": [
        {
          "client_id": "499083069931-5v284uirr4oi1dirvuata1kugibf9h6i.apps.googleusercontent.com",
          "client_type": 1,
          "android_info": {
            "package_name": "com.emrancom.lotto",
            "certificate_hash": "ee6a8f7618b1c4fc4d8c9d616a678ea643241f18"
          }
        },
        {
          "client_id": "499083069931-a7l0724u1277vf1k9u0uv943mf6gr1eg.apps.googleusercontent.com",
          "client_type": 3
        }
      ],
      "api_key": [
        {
          "current_key": "AIzaSyAyYdN6Be9KBu1bagIbWUprdlGQK8RO1kA"
        }
      ],
      "services": {
        "appinvite_service": {
          "other_platform_oauth_client": [
            {
              "client_id": "499083069931-a7l0724u1277vf1k9u0uv943mf6gr1eg.apps.googleusercontent.com",
              "client_type": 3
            },
            {
              "client_id": "499083069931-pnbdpcasn38nsplipo7s4dbev3b8gsc1.apps.googleusercontent.com",
              "client_type": 2,
              "ios_info": {
                "bundle_id": "chans.lotto"
              }
            }
          ]
        }
      },
      "admob_app_id": "ca-app-pub-6836066066475364~8801171539"
    },
    {
      "client_info": {
        "mobilesdk_app_id": "1:499083069931:android:8a2a326a908adb61",
        "android_client_info": {
          "package_name": "com.emrancom.lottogermany"
        }
      },
      "oauth_client": [
        {
          "client_id": "499083069931-a7l0724u1277vf1k9u0uv943mf6gr1eg.apps.googleusercontent.com",
          "client_type": 3
        }
      ],
      "api_key": [
        {
          "current_key": "AIzaSyAyYdN6Be9KBu1bagIbWUprdlGQK8RO1kA"
        }
      ],
      "services": {
        "appinvite_service": {
          "other_platform_oauth_client": [
            {
              "client_id": "499083069931-a7l0724u1277vf1k9u0uv943mf6gr1eg.apps.googleusercontent.com",
              "client_type": 3
            },
            {
              "client_id": "499083069931-pnbdpcasn38nsplipo7s4dbev3b8gsc1.apps.googleusercontent.com",
              "client_type": 2,
              "ios_info": {
                "bundle_id": "chans.lotto"
              }
            }
          ]
        }
      }
    },
    {
      "client_info": {
        "mobilesdk_app_id": "1:499083069931:android:5009a0577e4d4c87",
        "android_client_info": {
          "package_name": "com.emrancom.myapplication"
        }
      },
      "oauth_client": [
        {
          "client_id": "499083069931-mdj4pct2nl6uajf52mv4702lkbn22sqs.apps.googleusercontent.com",
          "client_type": 1,
          "android_info": {
            "package_name": "com.emrancom.myapplication",
            "certificate_hash": "ee6a8f7618b1c4fc4d8c9d616a678ea643241f18"
          }
        },
        {
          "client_id": "499083069931-a7l0724u1277vf1k9u0uv943mf6gr1eg.apps.googleusercontent.com",
          "client_type": 3
        }
      ],
      "api_key": [
        {
          "current_key": "AIzaSyAyYdN6Be9KBu1bagIbWUprdlGQK8RO1kA"
        }
      ],
      "services": {
        "appinvite_service": {
          "other_platform_oauth_client": [
            {
              "client_id": "499083069931-a7l0724u1277vf1k9u0uv943mf6gr1eg.apps.googleusercontent.com",
              "client_type": 3
            },
            {
              "client_id": "499083069931-pnbdpcasn38nsplipo7s4dbev3b8gsc1.apps.googleusercontent.com",
              "client_type": 2,
              "ios_info": {
                "bundle_id": "chans.lotto"
              }
            }
          ]
        }
      },
      "admob_app_id": "ca-app-pub-6836066066475364~1327093938"
    },
    {
      "client_info": {
        "mobilesdk_app_id": "1:499083069931:android:972145708074b165",
        "android_client_info": {
          "package_name": "com.emrancom.tipapp"
        }
      },
      "oauth_client": [
        {
          "client_id": "499083069931-hiivklf2jb2a5d9ps80ano3u0v1d19nb.apps.googleusercontent.com",
          "client_type": 1,
          "android_info": {
            "package_name": "com.emrancom.tipapp",
            "certificate_hash": "4320f2e7c772bb03c4382f64df8ee45cac5338f9"
          }
        },
        {
          "client_id": "499083069931-a7l0724u1277vf1k9u0uv943mf6gr1eg.apps.googleusercontent.com",
          "client_type": 3
        }
      ],
      "api_key": [
        {
          "current_key": "AIzaSyAyYdN6Be9KBu1bagIbWUprdlGQK8RO1kA"
        }
      ],
      "services": {
        "appinvite_service": {
          "other_platform_oauth_client": [
            {
              "client_id": "499083069931-a7l0724u1277vf1k9u0uv943mf6gr1eg.apps.googleusercontent.com",
              "client_type": 3
            },
            {
              "client_id": "499083069931-pnbdpcasn38nsplipo7s4dbev3b8gsc1.apps.googleusercontent.com",
              "client_type": 2,
              "ios_info": {
                "bundle_id": "chans.lotto"
              }
            }
          ]
        }
      },
      "admob_app_id": "ca-app-pub-6836066066475364~7462209130"
    },
    {
      "client_info": {
        "mobilesdk_app_id": "1:499083069931:android:4c9fc64746d27c0e",
        "android_client_info": {
          "package_name": "com.emrn.arayana"
        }
      },
      "oauth_client": [
        {
          "client_id": "499083069931-a7l0724u1277vf1k9u0uv943mf6gr1eg.apps.googleusercontent.com",
          "client_type": 3
        }
      ],
      "api_key": [
        {
          "current_key": "AIzaSyAyYdN6Be9KBu1bagIbWUprdlGQK8RO1kA"
        }
      ],
      "services": {
        "appinvite_service": {
          "other_platform_oauth_client": [
            {
              "client_id": "499083069931-a7l0724u1277vf1k9u0uv943mf6gr1eg.apps.googleusercontent.com",
              "client_type": 3
            },
            {
              "client_id": "499083069931-pnbdpcasn38nsplipo7s4dbev3b8gsc1.apps.googleusercontent.com",
              "client_type": 2,
              "ios_info": {
                "bundle_id": "chans.lotto"
              }
            }
          ]
        }
      },
      "admob_app_id": "ca-app-pub-6836066066475364~5947147638"
    },
    {
      "client_info": {
        "mobilesdk_app_id": "1:499083069931:android:9eddf4f9314d2634",
        "android_client_info": {
          "package_name": "com.example.emrn.megaemran"
        }
      },
      "oauth_client": [
        {
          "client_id": "499083069931-a7l0724u1277vf1k9u0uv943mf6gr1eg.apps.googleusercontent.com",
          "client_type": 3
        }
      ],
      "api_key": [
        {
          "current_key": "AIzaSyAyYdN6Be9KBu1bagIbWUprdlGQK8RO1kA"
        }
      ],
      "services": {
        "appinvite_service": {
          "other_platform_oauth_client": [
            {
              "client_id": "499083069931-a7l0724u1277vf1k9u0uv943mf6gr1eg.apps.googleusercontent.com",
              "client_type": 3
            },
            {
              "client_id": "499083069931-pnbdpcasn38nsplipo7s4dbev3b8gsc1.apps.googleusercontent.com",
              "client_type": 2,
              "ios_info": {
                "bundle_id": "chans.lotto"
              }
            }
          ]
        }
      }
    },
    {
      "client_info": {
        "mobilesdk_app_id": "1:499083069931:android:7dafdbc443cb96fc",
        "android_client_info": {
          "package_name": "com.taemrn.thewinner"
        }
      },
      "oauth_client": [
        {
          "client_id": "499083069931-a7l0724u1277vf1k9u0uv943mf6gr1eg.apps.googleusercontent.com",
          "client_type": 3
        }
      ],
      "api_key": [
        {
          "current_key": "AIzaSyAyYdN6Be9KBu1bagIbWUprdlGQK8RO1kA"
        }
      ],
      "services": {
        "appinvite_service": {
          "other_platform_oauth_client": [
            {
              "client_id": "499083069931-a7l0724u1277vf1k9u0uv943mf6gr1eg.apps.googleusercontent.com",
              "client_type": 3
            },
            {
              "client_id": "499083069931-pnbdpcasn38nsplipo7s4dbev3b8gsc1.apps.googleusercontent.com",
              "client_type": 2,
              "ios_info": {
                "bundle_id": "chans.lotto"
              }
            }
          ]
        }
      },
      "admob_app_id": "ca-app-pub-6836066066475364~9726501118"
    },
    {
      "client_info": {
        "mobilesdk_app_id": "1:499083069931:android:590c012d9e4db33d",
        "android_client_info": {
          "package_name": "com.taemrn.tsabe7"
        }
      },
      "oauth_client": [
        {
          "client_id": "499083069931-a7l0724u1277vf1k9u0uv943mf6gr1eg.apps.googleusercontent.com",
          "client_type": 3
        }
      ],
      "api_key": [
        {
          "current_key": "AIzaSyAyYdN6Be9KBu1bagIbWUprdlGQK8RO1kA"
        }
      ],
      "services": {
        "appinvite_service": {
          "other_platform_oauth_client": [
            {
              "client_id": "499083069931-a7l0724u1277vf1k9u0uv943mf6gr1eg.apps.googleusercontent.com",
              "client_type": 3
            },
            {
              "client_id": "499083069931-pnbdpcasn38nsplipo7s4dbev3b8gsc1.apps.googleusercontent.com",
              "client_type": 2,
              "ios_info": {
                "bundle_id": "chans.lotto"
              }
            }
          ]
        }
      },
      "admob_app_id": "ca-app-pub-6836066066475364~9207574099"
    },
    {
      "client_info": {
        "mobilesdk_app_id": "1:499083069931:android:d5c13d5a3625a490",
        "android_client_info": {
          "package_name": "lottopremium.emrancom.lorropaidjava"
        }
      },
      "oauth_client": [
        {
          "client_id": "499083069931-a7l0724u1277vf1k9u0uv943mf6gr1eg.apps.googleusercontent.com",
          "client_type": 3
        }
      ],
      "api_key": [
        {
          "current_key": "AIzaSyAyYdN6Be9KBu1bagIbWUprdlGQK8RO1kA"
        }
      ],
      "services": {
        "appinvite_service": {
          "other_platform_oauth_client": [
            {
              "client_id": "499083069931-a7l0724u1277vf1k9u0uv943mf6gr1eg.apps.googleusercontent.com",
              "client_type": 3
            },
            {
              "client_id": "499083069931-pnbdpcasn38nsplipo7s4dbev3b8gsc1.apps.googleusercontent.com",
              "client_type": 2,
              "ios_info": {
                "bundle_id": "chans.lotto"
              }
            }
          ]
        }
      }
    },
    {
      "client_info": {
        "mobilesdk_app_id": "1:499083069931:android:e3ea48874bff4c58",
        "android_client_info": {
          "package_name": "myapplication.emrancom.com.myapplication"
        }
      },
      "oauth_client": [
        {
          "client_id": "499083069931-a7l0724u1277vf1k9u0uv943mf6gr1eg.apps.googleusercontent.com",
          "client_type": 3
        }
      ],
      "api_key": [
        {
          "current_key": "AIzaSyAyYdN6Be9KBu1bagIbWUprdlGQK8RO1kA"
        }
      ],
      "services": {
        "appinvite_service": {
          "other_platform_oauth_client": [
            {
              "client_id": "499083069931-a7l0724u1277vf1k9u0uv943mf6gr1eg.apps.googleusercontent.com",
              "client_type": 3
            },
            {
              "client_id": "499083069931-pnbdpcasn38nsplipo7s4dbev3b8gsc1.apps.googleusercontent.com",
              "client_type": 2,
              "ios_info": {
                "bundle_id": "chans.lotto"
              }
            }
          ]
        }
      }
    }
  ],
  "configuration_version": "1"
}